0	1	38.14	0
0	1	38.14	0
0	1	38.71	0
0	1	41.29	1
1	0	40.14	0
0	1	38.29	0
0	1	41.0	1
0	1	37.71	0
0	1	41.57	0
0	1	37.86	0
0	1	41.43	1
0	1	44.71	1
1	0	40.43	0
0	1	44.14	0
0	1	43.14	1
0	1	44.14	1
0	1	38.14	0
1	0	43.0	0
1	0	39.86	1
1	0	41.29	1
0	1	43.71	1
1	0	40.0	1
1	0	43.57	0
0	1	44.43	1
1	0	38.14	1
0	1	39.29	0
0	1	37.71	0
0	1	37.71	0
0	1	39.0	1
1	0	38.14	1
1	0	39.86	0
0	1	39.14	0
0	1	43.0	1
0	1	41.71	1
1	0	40.14	0
0	1	37.57	1
0	1	38.0	0
0	1	38.14	1
0	1	38.14	0
0	1	39.71	0
0	1	39.86	1
0	1	41.43	1
0	1	41.14	1
0	1	38.43	1
0	1	43.57	0
0	1	43.86	1
0	1	37.86	1
0	1	39.86	0
0	1	44.0	1
0	1	41.14	0
1	0	38.43	0
0	1	38.86	0
1	0	42.86	0
1	0	40.86	1
1	0	41.71	1
1	0	42.29	0
0	1	39.0	0
0	1	39.14	1
0	1	42.0	1
0	1	41.86	0
0	1	43.57	0
1	0	44.29	0
1	0	42.14	0
0	1	39.0	0
0	1	42.0	1
0	1	42.43	0
1	0	40.14	0
1	0	43.14	0
1	0	42.0	1
1	0	41.14	1
0	1	38.14	1
1	0	41.0	0
1	0	38.57	1
0	1	38.86	0
1	0	41.71	1
1	0	39.71	0
1	0	44.0	1
1	0	39.29	0
1	0	39.43	0
1	0	38.29	0
1	0	38.29	0
0	1	42.0	0
0	1	43.0	1
1	0	41.29	0
0	1	40.71	0
0	1	42.57	1
1	0	40.29	1
1	0	39.57	1
0	1	43.29	0
0	1	44.29	0
1	0	40.14	1
0	1	42.43	0
0	1	42.14	0
0	1	43.71	0
0	1	42.29	1
0	1	40.14	1
0	1	43.43	0
0	1	40.57	0
0	1	40.71	0
1	0	41.57	1
0	1	41.29	1
0	1	43.43	0
0	1	40.71	1
1	0	43.71	0
