CC00094AN13-33500
CC00094BN13-33301
CC00095XX14-33501
CC00107XX08-36300
CC00121XX06-41700
CC00122XX07-42000
CC00150AN02-54800
CC00150BN02-49100
CC00153XX05-50300
CC00172AN08-56901
CC00174XX10-57200
CC00184XX12-60501
CC00191XX11-79600
CC00194XX14-65401
CC00197XX17-66500
CC00201XX03-67600
CC00236XX14-78700
CC00245BN15-94400
CC00248XX18-92700
CC00284AN13-111400
CC00292XX13-93800
CC00301XX04-113001
CC00309BN12-99400
CC00316XX11-101300
CC00333XX12-105800
CC00337XX16-107000
CC00338AN17-107700
CC00338BN17-107600
CC00345XX16-109000
CC00350XX04-109100
CC00361XX07-120500
CC00363XX09-114900
CC00382XX12-121700
CC00383XX13-121800
CC00395XX17-129500
CC00404XX08-124500
CC00414XX10-127300
CC00421AN09-126000
CC00421BN09-126100
CC00426XX14-129900
CC00427XX15-130100
CC00440XX12-132200
CC00441XX13-132902
CC00450XX05-136100
CC00454XX09-137600
CC00461XX08-175100
CC00466AN13-138400
CC00478XX17-141601
CC00480XX11-141609
CC00482XX13-142000
CC00489XX20-142900
CC00515XX12-152600
CC00518XX15-166600
CC00525XX14-165900
CC00526XX15-169900
CC00529AN18-170000
CC00537XX18-157100
CC00546XX19-173100
CC00562XX10-191900
CC00564XX12-154100
CC00568XX16-198900
CC00572CN12-161200
CC00576XX16-178200
CC00582XX14-178300
CC00583XX15-178600
CC00607XX13-179300
CC00617XX15-188400
CC00621XX11-195900
CC00628XX18-193500
CC00629XX19-198100
CC00647XX21-190801
CC00657XX14-212200
CC00666XX15-212100
CC00667XX16-196800
CC00672BN13-214800
CC00686XX19-209100
CC00694XX19-228100
CC00723XX14-224100
CC00747XX22-238600
CC00754AN12-223800
CC00754BN12-223701
CC00777XX19-239102
CC00791XX17-27611
CC00805XX13-24210
CC00810XX10-29010
CC00815XX15-4120
CC00829XX21-27411
CC00830XX14-30710
CC00846XX22-26710
CC00856XX15-15330
CC00867XX18-8930
CC00868XX19-16530
CC00882XX17-13030
CC00890XX17-13330
CC00909XX18-43730
CC00915XX16-18530
CC00923XX16-48430
CC00924XX17-36330
CC00938XX23-47931
CC00946XX23-26330
CC00956XX16-37730
CC00958XX18-40630
CC00971XX15-45431
CC01006XX08-62330
