﻿ID,CS L,STS L ,LF L,POF L,CALC L,CS R,STS R,LF R,POF R,CALC R
CC00094AN13,1,1,1,1,1,1,1,1,1,1
CC00094BN13,1,1,1,1,1,1,1,1,1,1
CC00095XX14,1,1,1,1,1,1,1,1,1,1
CC00107XX08,1,1,1,1,1,1,1,1,1,1
CC00108XX09,1,1,1,1,1,1,1,1,1,1
CC00119XX12,1,0,1,1,1,1,1,1,1,1
CC00122XX07,1,0,1,1,1,1,1,1,1,1
CC00134XX11,0,0,0,0,0,0,0,0,0,0
CC00150AN02,1,1,1,1,1,1,1,1,1,1
CC00150BN02,1,0,1,1,1,1,1,1,1,1
CC00153XX05,1,1,1,1,1,1,1,1,1,1
CC00158XX10,1,1,1,1,1,1,1,1,1,1
CC00168XX12,1,1,1,1,1,1,1,1,1,1
CC00172AN08,1,1,1,1,1,1,1,1,1,1
CC00172BN08,1,1,1,1,1,1,1,1,1,1
CC00174XX10,1,1,1,1,1,1,1,1,1,1
CC00184XX12,1,1,1,1,1,1,1,1,1,1
CC00194XX14,1,1,1,1,1,1,1,1,1,1
CC00197XX17,1,1,1,1,1,1,1,1,1,1
CC00200XX02,1,0,1,1,1,1,0,1,1,1
CC00201XX03,1,1,1,1,1,1,1,1,1,1
CC00236XX14,1,1,1,1,1,1,1,1,1,1
CC00252XX05,1,1,1,1,1,1,1,1,1,1
CC00267XX12,1,1,1,1,1,1,1,1,1,1
CC00286XX15,1,1,1,1,1,1,1,1,1,1
CC00292XX13,1,1,1,1,1,1,1,1,1,1
CC00303XX06,1,1,1,1,1,1,1,1,1,1
CC00316XX11,1,1,1,1,1,1,1,1,1,1
CC00332XX11,1,1,1,1,1,1,1,1,1,1
CC00337XX16,1,1,1,1,1,1,1,1,1,1
CC00338AN17,1,1,1,1,1,1,1,1,1,1
CC00338BN17,1,1,1,1,1,1,1,1,1,1
CC00345XX16,1,1,1,1,1,1,1,1,1,1
CC00353XX07,1,1,1,1,1,1,1,1,1,1
CC00363XX09,1,1,1,1,1,1,1,1,1,1
CC00376XX14,1,1,1,1,1,1,1,1,1,1
CC00377XX15,1,1,1,1,1,1,1,1,1,1
CC00382XX12,1,1,1,1,1,1,1,1,1,1
CC00383XX13,1,1,1,1,1,1,1,1,1,1
CC00404XX08,1,1,1,1,1,1,1,1,1,1
CC00414XX10,0,0,0,0,0,1,1,1,1,1
CC00421AN09,1,1,1,1,1,1,1,1,1,1
CC00421BN09,1,1,1,1,1,1,1,1,1,1
CC00426XX14,1,1,1,1,1,1,1,1,1,1
CC00427XX15,1,1,1,1,1,1,1,1,1,1
CC00431XX11,1,1,1,1,1,1,0,1,1,1
CC00438XX18,1,1,1,1,1,1,1,1,1,1
CC00440XX12,1,1,1,1,1,1,1,1,1,1
CC00441XX13,1,1,1,1,1,1,1,1,1,1
CC00450XX05,1,1,1,1,1,1,0,1,1,1
CC00454XX09,0,0,0,0,0,1,1,1,1,1
CC00461XX08,1,1,1,1,1,1,0,1,1,1
CC00462XX09,1,1,1,1,1,1,0,0,1,1
CC00466AN13,1,1,1,1,1,1,1,1,1,1
CC00478XX17,1,1,1,1,1,1,1,1,1,1
CC00480XX11,1,0,1,1,1,1,1,1,1,1
CC00482XX13,1,1,1,1,1,1,1,1,1,1
CC00515XX12,1,1,1,1,1,1,0,1,1,1
CC00536XX17,1,1,1,1,1,1,0,1,1,1
CC00537XX18,1,1,1,1,1,1,1,1,1,1
CC00542XX15,1,1,1,1,1,1,1,1,1,1
CC00546XX19,1,1,1,1,1,1,1,1,1,1
CC00556XX12,1,1,1,1,1,1,0,1,1,1
CC00558XX14,1,1,1,1,1,1,0,0,1,1
CC00562XX10,1,1,1,1,1,1,1,1,1,1
CC00564XX12,1,1,1,1,1,1,0,1,1,1
CC00566XX14,1,1,1,1,1,1,1,1,1,1
CC00568XX16,1,1,1,1,1,1,1,1,1,1
CC00582XX14,1,1,1,1,1,1,1,1,1,1
CC00583XX15,1,1,1,1,1,1,1,1,1,1
CC00589XX21,1,1,1,1,1,1,1,1,1,1
CC00607XX13,1,1,1,1,1,1,1,1,1,1
CC00647XX21,1,1,1,1,1,1,1,1,1,1
CC00667XX16,1,1,1,1,1,1,0,1,1,1
CC00716XX15,1,0,1,1,1,1,0,1,1,1
CC00740XX15,1,0,1,1,1,1,1,1,1,1
CC00753XX11,1,1,1,1,1,1,1,1,1,1
CC00765XX15,1,1,1,1,1,1,1,1,1,1
CC00777XX19,1,1,1,1,1,1,1,1,1,1
CC00782XX16,0,0,0,0,0,1,1,1,1,1
CC00791XX17,1,1,1,1,1,1,1,1,1,1
CC00798XX24,1,1,1,1,1,1,1,1,1,1
CC00810XX10,1,1,1,1,1,1,1,1,1,1
CC00815XX15,1,0,1,1,1,1,1,1,1,1
CC00822XX14,1,1,1,1,1,1,1,1,1,1
CC00846XX22,1,1,1,1,1,1,1,1,1,1
CC00856XX15,1,1,1,1,1,1,0,1,1,1
CC00861XX12,1,1,1,1,1,1,0,1,1,1
CC00868XX19,1,1,1,1,1,1,0,1,1,1
CC00881XX16,1,0,1,1,1,1,1,1,1,1
CC00882XX17,1,1,1,1,1,1,0,1,1,1
CC00886XX21,1,1,1,1,1,1,0,1,1,1
CC00890XX17,1,1,1,1,1,1,1,1,1,1
CC00909XX18,1,1,1,1,1,1,1,1,1,1
CC00915XX16,1,1,1,1,1,1,1,1,1,1
CC00923XX16,1,0,1,1,1,1,0,1,1,1
CC00924XX17,1,1,1,1,1,1,0,1,1,1
CC00938XX23,1,1,1,1,1,1,0,1,1,1
CC00947XX24,1,1,1,1,1,1,1,1,1,1
CC00956XX16,1,1,1,1,1,1,1,1,1,1
CC00958XX18,1,1,1,1,1,1,1,1,1,1
CC00967XX19,1,1,1,1,1,1,1,1,1,1
CC00971XX15,1,1,1,1,1,1,0,1,1,1
CC00976XX20,1,1,1,1,1,1,1,1,1,1
CC00987XX23,1,1,1,1,1,1,0,1,1,1
CC00990XX18,1,0,1,1,1,1,0,1,1,1
CC01004XX06,1,1,1,1,1,1,0,1,1,1
CC01074XX11,1,1,1,1,1,1,0,1,1,1
CC00112XX05,1,0,1,1,1,1,1,1,1,0
CC00121XX06,1,0,1,1,1,1,0,1,1,1
CC00191XX11,1,1,1,1,1,1,1,1,1,1
CC00245AN15,1,0,1,1,1,1,1,1,1,1
CC00245BN15,1,0,1,1,1,1,0,1,1,1
CC00248XX18,1,1,1,1,1,1,1,1,1,1
CC00284AN13,1,0,1,1,1,1,0,1,1,1
CC00284BN13,1,1,1,1,1,1,0,1,1,1
CC00301XX04,1,1,1,1,1,1,0,1,1,1
CC00305XX08,1,0,1,1,1,1,0,1,1,1
CC00309BN12,1,0,1,1,1,1,1,1,1,1
CC00333XX12,1,1,1,1,1,1,1,1,1,1
CC00350XX04,1,0,1,1,1,1,1,1,1,1
CC00361XX07,1,1,1,1,1,1,1,1,1,1
CC00389XX19,1,0,1,1,1,1,1,1,1,1
CC00395XX17,1,0,1,1,1,1,1,1,1,1
CC00489XX20,1,0,1,1,1,1,1,1,1,1
CC00518XX15,1,0,1,1,1,1,1,1,1,1
CC00525XX14,1,0,1,1,1,1,1,1,1,1
CC00526XX15,1,1,1,1,1,1,1,1,1,1
CC00529AN18,1,0,1,1,1,1,0,1,1,1
CC00529BN18,1,0,1,1,1,1,1,1,1,1
CC00572BN12,1,0,1,1,0,1,1,1,1,1
CC00572CN12,1,1,1,1,1,1,1,1,1,1
CC00576XX16,1,0,1,1,1,1,1,1,1,1
CC00617XX15,1,1,1,1,1,1,1,1,1,1
CC00621XX11,1,1,1,1,1,1,1,1,1,1
CC00628XX18,1,1,1,1,1,1,1,1,1,1
CC00629XX19,1,1,1,1,1,1,0,1,1,1
CC00632XX14,1,1,1,1,1,0,0,0,0,0
CC00657XX14,1,1,1,1,1,1,1,1,1,1
CC00661XX10,1,0,1,1,1,1,0,1,1,1
CC00666XX15,1,0,1,1,1,1,0,1,1,1
CC00672BN13,1,0,1,1,1,1,0,1,1,1
CC00686XX19,1,1,1,1,1,1,1,1,1,1
CC00694XX19,1,1,1,1,1,1,0,1,1,1
CC00702AN09,1,0,1,1,1,1,1,1,1,1
CC00702BN09,1,1,1,1,1,1,0,1,1,1
CC00723XX14,1,1,1,1,1,1,1,1,1,1
CC00747XX22,1,1,1,1,1,1,1,1,1,1
CC00754AN12,1,1,1,1,1,1,0,1,1,1
CC00754BN12,1,0,1,1,1,1,0,1,1,1
CC00770XX12,1,0,1,1,1,1,0,1,1,1
CC00805XX13,1,1,1,1,1,1,1,1,1,1
CC00829XX21,1,1,1,1,1,1,1,1,1,1
CC00830XX14,1,1,1,1,1,1,1,1,1,1
CC00838XX22,1,0,1,1,1,1,1,1,1,1
CC00867XX18,1,1,1,1,1,1,1,1,1,1
CC00891XX18,1,1,1,1,1,1,1,1,1,1
CC00946XX23,1,1,1,1,1,1,0,1,1,1
CC00997BN25,1,1,1,1,1,1,1,1,1,1
CC01006XX08,1,1,1,1,1,1,1,1,1,1
