ID,CS L,STS L ,LF L,POF L,CALC L,CS R,STS R,LF R,POF R,CALC R
8018,1,0,1,1,1,1,1,1,1,1
8021,1,0,1,1,1,1,1,1,1,1
8022,1,0,1,1,0,1,0,1,0,1
8024,1,1,1,1,1,1,1,1,1,0
8027,1,0,1,1,1,1,1,1,1,1
8029,1,1,1,1,1,1,0,0,1,1
8033,1,0,1,1,1,1,1,1,1,1
8034,1,1,1,1,1,1,1,1,1,1
8035,1,1,1,1,1,0,1,1,1,1
8036,1,1,0,1,1,1,1,1,1,1
8037,1,1,1,1,1,1,1,1,1,1
8038,1,1,1,1,1,1,1,1,1,1
8039,1,1,1,1,1,0,1,1,1,1
8040,1,1,1,1,1,1,1,1,1,1
8041,1,1,1,1,1,1,1,1,1,1
8042,1,1,1,1,1,1,1,1,1,1
8043,1,1,1,1,1,1,1,1,1,1
8046,1,1,1,1,1,1,1,1,1,1
8048,1,0,0,1,1,1,1,1,1,1
8049,1,1,1,1,1,1,1,1,1,1
8052,1,1,1,1,1,1,0,0,0,0
8053,0,0,0,0,0,1,1,1,1,1
8055,1,1,1,1,1,1,1,1,1,1
8059,1,0,0,1,1,1,1,1,1,1
8060,1,1,1,1,1,1,1,1,1,1
8061,1,1,1,1,1,0,1,1,1,1
8064,1,1,1,1,1,1,1,1,1,1
8067,1,1,1,1,1,1,1,1,1,1
8068,1,1,1,1,1,1,1,1,1,1
8069,1,0,1,1,1,0,1,1,1,1
8070,1,1,1,1,1,1,1,1,1,1
8072,1,0,1,0,0,0,1,1,0,0
8076,1,1,1,1,1,0,1,1,1,1
8078,1,1,1,1,1,0,1,1,1,1
8079,1,1,1,1,1,1,1,1,1,1
8080,0,1,1,0,0,1,1,1,1,1
8081,1,1,1,1,1,1,1,1,1,1
8083,1,1,1,1,1,0,1,1,1,1
8084,1,1,1,1,1,0,0,1,1,1
8087,0,1,1,1,1,0,1,1,1,1
8088,0,1,1,1,1,1,1,1,1,1
8089,1,1,1,1,1,1,1,1,1,1
8090,0,1,1,1,1,1,0,1,0,0
8092,1,1,1,1,1,0,1,0,1,1
8093,1,1,1,1,1,1,1,1,1,1
8094,1,1,1,1,1,1,1,1,1,1
8095,1,1,1,1,1,1,0,0,1,1
8096,1,0,0,0,0,1,0,0,0,0
8099,1,1,0,1,1,1,1,1,1,1
8100,1,1,1,1,1,1,1,1,1,1
8101,1,1,1,1,1,1,1,1,1,1
8102,1,1,1,1,1,1,0,0,0,0
8103,1,1,1,1,1,1,1,1,1,1
8104,1,0,1,1,1,1,1,1,1,1
8105,1,1,1,1,1,1,1,1,1,1
8106,1,1,1,1,1,1,1,1,1,1
8109,1,1,1,1,1,1,1,1,1,1
8110,1,1,1,1,1,1,1,1,1,1
8115,1,1,1,0,1,0,1,1,1,1
8116,1,1,1,1,1,1,1,1,1,1
8117,1,1,1,1,1,1,1,1,1,1
8118,1,1,1,1,1,1,1,1,1,1
8119,0,0,0,1,1,0,1,1,1,1
8120,1,0,1,1,1,1,1,1,1,1
8121,0,1,0,1,1,1,1,1,1,1
8122,1,1,1,1,1,1,1,1,1,1
8123,1,1,1,1,1,0,1,0,1,1
8124,1,1,0,1,1,1,1,1,1,1
8126,1,1,1,1,1,1,1,1,1,1
8128,1,1,0,1,1,0,1,1,1,1
8130,1,1,1,1,1,1,1,1,1,1
8131,1,1,1,1,1,1,0,1,0,0
8132,1,0,1,0,0,1,1,1,1,1
8134,1,1,1,1,1,1,1,1,1,1
8136,1,1,1,1,1,1,1,1,1,1
8138,0,1,1,1,1,1,1,1,1,1
8141,1,1,1,0,0,1,1,1,1,1
8143,1,1,1,1,1,1,1,1,1,1
8144,1,1,1,1,1,1,1,1,1,1
8145,0,1,1,1,1,1,1,1,1,1
8146,1,1,1,1,1,1,1,1,1,1
8147,1,0,0,1,1,1,1,1,1,1
8158,1,1,1,1,1,1,0,0,0,0
8159,1,1,1,1,1,1,1,1,1,1
8160,1,1,1,1,1,0,1,1,0,1
8161,1,1,1,1,1,1,1,1,1,1
8163,1,1,1,1,1,0,1,1,0,1
8165,1,1,1,1,1,1,1,1,1,1
8166,1,1,1,1,1,1,1,1,1,1
8167,1,1,1,1,1,1,1,1,0,1
8168,1,1,1,1,1,0,1,1,1,1
8169,1,0,1,1,1,0,1,1,1,1
8170,0,1,1,1,1,0,0,1,0,1
8172,1,1,1,1,1,1,0,1,1,1
8173,1,1,1,1,1,0,1,1,1,1
8174,1,0,1,1,1,1,1,1,1,1
8175,1,1,1,1,1,1,1,1,1,1
8176,1,1,0,1,1,1,1,1,1,1
8179,1,1,1,1,1,1,1,1,1,1
8182,1,1,1,1,1,1,1,1,1,1
8187,1,0,1,1,1,1,0,1,1,1
8190,1,1,1,1,1,1,1,1,1,1
8192,1,1,1,1,1,1,1,1,0,1
8193,1,0,1,1,0,1,1,1,1,0
8196,1,1,0,1,1,1,1,0,1,1
8198,1,1,1,1,1,1,0,1,1,1
8201,0,0,1,1,1,1,1,1,1,1
8203,1,1,0,1,1,1,1,1,1,1
8204,1,1,1,1,1,1,1,1,1,1
8208,0,1,1,1,1,0,0,0,1,1
8212,1,1,1,1,1,1,1,1,1,1
8214,1,1,1,1,1,1,1,1,1,1
8217,1,1,1,1,1,1,0,1,1,1
8218,1,1,1,1,1,0,1,1,1,1
8219,1,1,1,1,1,0,0,1,1,1
8220,1,0,1,1,1,0,1,1,1,1
8221,1,0,1,1,1,1,0,1,1,1
8223,1,1,1,1,1,1,0,1,1,1
8225,1,0,1,1,1,1,1,1,1,1
8226,1,1,1,1,1,1,1,1,1,1
8228,1,1,1,1,1,0,1,1,1,1
8229,1,1,1,1,1,1,1,1,1,1
8231,0,1,1,1,1,1,1,1,1,1
8234,1,0,0,1,1,1,1,1,1,1
8235,1,0,1,1,1,1,1,1,1,1
8236,1,1,1,1,1,1,1,1,1,1
8241,1,1,1,1,1,1,1,1,1,1
8245,1,1,1,1,1,0,1,1,1,1
8248,1,1,1,1,1,1,1,1,1,1
8251,0,1,1,1,1,1,0,1,1,1
8252,1,1,1,1,1,1,1,0,1,1
8254,1,1,1,1,1,1,1,1,1,1
8255,1,1,1,1,1,1,1,0,1,1
8256,1,1,1,1,1,1,1,1,1,1
8258,1,0,1,1,0,0,1,1,1,0
8259,1,0,1,1,1,1,1,1,1,1
8260,1,1,1,1,1,0,1,1,1,1
8262,1,1,1,1,1,1,1,1,1,1
8263,1,1,1,1,1,1,1,1,1,1
8264,1,0,1,1,0,1,1,1,1,1
8265,1,1,1,1,1,1,1,1,1,1
8267,1,0,1,1,1,1,0,1,1,0
8269,0,1,1,1,1,0,1,0,0,0
8271,1,1,1,1,1,1,1,1,1,1
8273,1,1,1,1,1,0,1,1,1,1
8276,1,1,1,1,1,1,1,1,1,1
8283,1,1,1,1,1,1,1,1,1,1
8287,1,0,1,1,0,1,0,1,1,1
8289,1,1,1,1,1,1,1,1,1,0
8291,1,0,1,1,1,1,1,1,1,1
8294,1,1,1,1,1,1,1,1,1,0
8297,1,1,1,1,1,1,1,1,1,1
8298,1,1,1,1,1,0,1,1,1,1
8301,1,1,1,1,1,1,1,1,1,1
8305,1,0,1,1,1,1,1,1,1,1
8306,1,1,1,1,1,1,1,1,1,1
8307,1,1,1,1,1,1,1,1,1,1
8308,1,1,1,1,1,0,1,1,1,1
8310,1,1,1,1,0,1,1,1,1,1
8311,1,0,1,1,1,1,1,0,1,1
8313,1,1,1,1,1,1,1,1,1,1
8315,1,0,1,1,1,1,1,1,1,1
8316,1,0,0,1,0,1,0,0,1,1
8320,1,1,1,1,1,1,1,1,1,1
8323,1,1,1,1,1,1,1,1,1,1
8325,1,0,1,1,1,1,1,1,1,1
8328,1,1,1,1,1,1,1,1,1,1
8330,1,1,1,1,1,1,1,1,1,1
8333,1,1,1,0,1,1,0,0,0,0
8336,1,1,1,1,1,1,0,1,0,0
8345,1,1,1,1,1,0,1,1,1,1
8353,1,1,1,1,1,1,0,1,1,1
8357,1,1,1,1,1,1,1,1,1,1
8358,1,1,1,1,1,1,1,1,1,1
8372,0,1,1,1,1,1,1,1,1,1
8373,1,1,1,1,1,1,1,1,1,1
8375,1,1,1,1,1,1,0,1,1,1
8378,1,1,1,1,1,0,1,1,1,1
8380,0,1,1,1,1,0,1,1,1,1
8382,1,1,1,1,1,1,1,1,1,1
8384,1,1,1,1,1,1,1,1,1,1
8385,1,1,1,1,1,1,1,1,1,1
8386,1,1,1,1,1,1,1,0,1,1
8387,0,0,1,1,1,0,1,0,1,1
8390,1,1,0,1,1,1,1,1,1,1
8391,0,1,1,1,1,1,1,1,1,1
8392,0,1,1,0,1,1,0,1,1,1
8397,1,1,1,1,1,1,0,1,0,1
8398,1,1,1,1,1,1,1,1,1,1
8399,1,0,1,1,1,1,1,1,1,0
8404,1,1,1,1,1,1,1,1,1,1
8406,1,1,1,1,1,0,1,1,1,1
8407,1,0,1,1,1,1,1,1,1,1
8408,1,1,1,1,1,1,1,1,1,1
8409,1,1,1,1,0,1,1,1,0,1
8410,1,1,1,1,1,1,1,1,1,1
8411,1,1,1,1,1,1,1,1,1,1
8414,0,1,1,0,0,0,1,1,0,1
8416,0,1,1,1,1,1,1,1,1,0
8417,1,1,1,1,1,1,1,1,1,1
8418,1,1,1,1,1,1,1,1,1,1
8419,1,1,1,1,1,0,1,1,1,1
8423,1,1,1,1,1,1,1,1,1,1
8425,1,1,1,1,1,1,1,1,1,1
8426,1,1,1,1,1,1,1,1,1,1
8429,1,1,1,1,1,0,1,1,1,1
8433,1,1,1,1,1,0,1,1,1,1
8435,1,1,1,1,1,1,1,1,1,1
8427,1,1,1,1,1,0,1,1,1,1
8428,1,0,1,1,1,0,1,1,0,1
8430,1,1,1,1,1,1,0,1,1,1
