8018
8021
8027
8029
8033
8034
8035
8036
8037
8038
8039
8040
8041
8042
8043
8046
8048
8049
8052
8053
8055
8059
8060
8061
8064
8067
8068
8069
8070
8076
8078
8079
8080
8081
8083
8084
8087
8088
8089
8090
8092
8093
8094
8095
8096
8099
8100
8101
8102
8103
8104
8105
8106
8107
8109
8110
8112
8116
8117
8118
8120
8121
8122
8123
8124
8126
8130
8131
8134
8136
8141
8143
8144
8145
8146
8147
8158
8159
8161
8163
8165
8166
8167
8168
8169
8170
8172
8173
8174
8175
8176
8179
8182
8184
8187
8190
8196
8198
8199
8200
8201
8202
8203
8204
8206
8208
8209
8212
8214
8218
8219
8220
8221
8223
8225
8226
8229
8231
8234
8235
8236
8241
8245
8248
8252
8254
8255
8256
8258
8259
8260
8263
8264
8265
8267
8271
8273
8276
8282
8283
8284
8287
8289
8290
8291
8294
8297
8298
8299
8301
8303
8305
8306
8307
8308
8310
8311
8313
8315
8320
8323
8325
8328
8330
8333
8345
8353
8357
8358
8372
8373
8375
8378
8384
8385
8386
8387
8390
8391
8392
8397
8398
8399
8404
8406
8407
8408
8410
8411
8416
8417
8418
8419
8423
8426
8427
8429
8432
8435
8437
8438
8439
8442
8443
8444
8445
8446
8447
8449
8450
8451
8454
8455
8456
8458
8460
8461
8463
8465
